<?xml version="1.0" encoding="utf-8"?>
<!-- Generator: Adobe Illustrator 17.0.2, SVG Export Plug-In . SVG Version: 6.00 Build 0)  -->
<!DOCTYPE svg PUBLIC "-//W3C//DTD SVG 1.1//EN" "http://www.w3.org/Graphics/SVG/1.1/DTD/svg11.dtd">
<svg version="1.1" id="Layer_1" xmlns="http://www.w3.org/2000/svg" xmlns:xlink="http://www.w3.org/1999/xlink" x="0px" y="0px"
	 width="693.721px" height="69.333px" viewBox="0 0 693.721 69.333" enable-background="new 0 0 693.721 69.333"
	 xml:space="preserve">
<g>
	<path fill="#FFFFFF" d="M0,4.341h22.768c4.768,0,9.144,0.772,13.128,2.312c3.982,1.541,7.415,3.679,10.293,6.411
		c2.879,2.734,5.103,5.947,6.673,9.639c1.57,3.694,2.355,7.691,2.355,11.994v0.176c0,4.304-0.785,8.316-2.355,12.037
		c-1.57,3.723-3.795,6.95-6.673,9.683c-2.878,2.734-6.311,4.885-10.293,6.455c-3.984,1.57-8.361,2.355-13.128,2.355H0V4.341z
		 M22.68,55.72c3.198,0,6.107-0.51,8.723-1.532c2.617-1.023,4.841-2.452,6.673-4.292c1.832-1.84,3.256-4.03,4.274-6.571
		c1.017-2.54,1.526-5.299,1.526-8.276v-0.176c0-2.979-0.51-5.752-1.526-8.322c-1.018-2.569-2.442-4.773-4.274-6.613
		c-1.832-1.84-4.056-3.285-6.673-4.337c-2.617-1.051-5.525-1.577-8.723-1.577H10.643V55.72H22.68z"/>
	<path fill="#FFFFFF" d="M76.938,4.341h45.186v9.683H87.58v15.702h30.618v9.683H87.58V55.72h34.979v9.683H76.938V4.341z"/>
	<path fill="#FFFFFF" d="M144.019,4.341h11.428l18.58,28.874l18.58-28.874h11.427v61.062h-10.642v-43.79l-19.278,28.786h-0.349
		l-19.104-28.612v43.616h-10.643V4.341z"/>
	<path fill="#FFFFFF" d="M250.092,3.905h9.944l26.867,61.498h-11.34L269.37,50.66h-28.874l-6.281,14.742h-10.991L250.092,3.905z
		 M265.444,41.153l-10.555-24.425l-10.468,24.425H265.444z"/>
	<path fill="#FFFFFF" d="M330.692,66.45c-4.479,0-8.607-0.815-12.387-2.442c-3.781-1.628-7.06-3.851-9.839-6.674
		c-2.779-2.819-4.96-6.149-6.543-9.987c-1.582-3.839-2.373-7.938-2.373-12.3v-0.174c0-4.362,0.776-8.447,2.33-12.257
		c1.552-3.808,3.733-7.153,6.542-10.031c2.808-2.879,6.132-5.147,9.97-6.804c3.838-1.657,8.082-2.486,12.735-2.486
		c2.792,0,5.335,0.233,7.633,0.698c2.297,0.466,4.406,1.12,6.324,1.962c1.92,0.844,3.693,1.847,5.322,3.01
		c1.627,1.164,3.168,2.442,4.623,3.838l-6.892,7.938c-2.442-2.267-5.03-4.1-7.764-5.495c-2.734-1.396-5.844-2.094-9.333-2.094
		c-2.909,0-5.598,0.567-8.069,1.701c-2.473,1.134-4.61,2.675-6.412,4.623c-1.803,1.949-3.199,4.231-4.187,6.848
		c-0.99,2.617-1.483,5.409-1.483,8.374v0.176c0,2.965,0.493,5.771,1.483,8.417c0.988,2.647,2.384,4.959,4.187,6.935
		c1.802,1.979,3.939,3.533,6.412,4.667c2.471,1.135,5.16,1.701,8.069,1.701c3.721,0,6.92-0.711,9.595-2.137
		c2.675-1.425,5.321-3.358,7.938-5.801l6.891,6.979c-1.57,1.688-3.213,3.184-4.928,4.492c-1.717,1.309-3.563,2.442-5.539,3.402
		c-1.978,0.959-4.144,1.687-6.499,2.181C336.145,66.202,333.541,66.45,330.692,66.45z"/>
</g>
<g>
	<path fill="#FFFFFF" d="M376.726,4.341h4.273l24.512,36.114l24.512-36.114h4.275v61.062h-4.537V12.366L405.599,47.52h-0.35
		l-24.162-35.154v53.037h-4.361V4.341z"/>
	<path fill="#FFFFFF" d="M461.077,4.341h43.44v4.1h-38.904v24.163h34.979v4.1h-34.979v24.6h39.341v4.1h-43.877V4.341z"/>
	<path fill="#FFFFFF" d="M528.158,4.341h20.324c4.768,0,9.145,0.772,13.129,2.312c3.982,1.541,7.414,3.679,10.293,6.411
		c2.879,2.734,5.104,5.947,6.673,9.639c1.57,3.694,2.355,7.691,2.355,11.994v0.176c0,4.304-0.785,8.316-2.355,12.037
		c-1.569,3.723-3.794,6.95-6.673,9.683c-2.879,2.734-6.31,4.885-10.293,6.455c-3.984,1.57-8.36,2.355-13.129,2.355h-20.324V4.341z
		 M548.482,61.303c4.245,0,8.083-0.686,11.515-2.057c3.431-1.371,6.338-3.237,8.724-5.601c2.384-2.363,4.23-5.135,5.539-8.315
		c1.309-3.18,1.963-6.607,1.963-10.285v-0.174c0-3.618-0.654-7.031-1.963-10.239c-1.309-3.208-3.155-6.01-5.539-8.403
		c-2.386-2.392-5.293-4.288-8.724-5.689c-3.432-1.399-7.269-2.1-11.515-2.1h-15.788v52.862H548.482z"/>
	<path fill="#FFFFFF" d="M605.706,4.341h4.536v61.062h-4.536V4.341z"/>
	<path fill="#FFFFFF" d="M660.922,3.905h4.361l28.438,61.498h-4.972l-7.764-17.098h-36.026l-7.764,17.098h-4.711L660.922,3.905z
		 M679.066,44.205L663.016,8.877l-16.138,35.329H679.066z"/>
</g>
</svg>
